{
    "key": "group_5e1389e55fcc3",
    "title": "Block: Season Schedule",
    "fields": [
        {
            "key": "field_5f7f32b7ca6bd",
            "label": "Filters",
            "name": "filters",
            "type": "repeater",
            "instructions": "",
            "required": 0,
            "conditional_logic": 0,
            "wrapper": {
                "width": "",
                "class": "",
                "id": ""
            },
            "collapsed": "",
            "min": 0,
            "max": 0,
            "layout": "table",
            "button_label": "+ Add Filter",
            "sub_fields": [
                {
                    "key": "field_5f7f32bcca6be",
                    "label": "Label",
                    "name": "label",
                    "type": "text",
                    "instructions": "(e.g. Men, Women)",
                    "required": 0,
                    "conditional_logic": 0,
                    "wrapper": {
                        "width": "",
                        "class": "",
                        "id": ""
                    },
                    "default_value": "",
                    "placeholder": "",
                    "prepend": "",
                    "append": "",
                    "maxlength": ""
                },
                {
                    "key": "field_5f7f32c4ca6bf",
                    "label": "Slug",
                    "name": "slug",
                    "type": "text",
                    "instructions": "Lowercase, dashes (e.g. mixed, grand-masters, d-iii)",
                    "required": 0,
                    "conditional_logic": 0,
                    "wrapper": {
                        "width": "",
                        "class": "",
                        "id": ""
                    },
                    "default_value": "",
                    "placeholder": "",
                    "prepend": "",
                    "append": "",
                    "maxlength": ""
                },
                {
                    "key": "field_5f7f3b0ffdf98",
                    "label": "Type",
                    "name": "type",
                    "type": "button_group",
                    "instructions": "",
                    "required": 0,
                    "conditional_logic": 0,
                    "wrapper": {
                        "width": "",
                        "class": "",
                        "id": ""
                    },
                    "choices": {
                        "division": "Division",
                        "level": "Level"
                    },
                    "allow_null": 0,
                    "default_value": "",
                    "layout": "horizontal",
                    "return_format": "value"
                }
            ]
        },
        {
            "key": "field_5e1389ed4f45b",
            "label": "Sheet ID",
            "name": "sheet_id",
            "type": "text",
            "instructions": "",
            "required": 0,
            "conditional_logic": 0,
            "wrapper": {
                "width": "",
                "class": "",
                "id": ""
            },
            "default_value": "",
            "placeholder": "",
            "prepend": "",
            "append": "",
            "maxlength": ""
        },
        {
            "key": "field_5f7f35c3d5f6d",
            "label": "Columns",
            "name": "columns",
            "type": "repeater",
            "instructions": "Division (division) is a must use for filters to work\r\nLevel (level) is a must use for filters to work",
            "required": 0,
            "conditional_logic": 0,
            "wrapper": {
                "width": "",
                "class": "",
                "id": ""
            },
            "collapsed": "",
            "min": 0,
            "max": 0,
            "layout": "table",
            "button_label": "+ Add Column",
            "sub_fields": [
                {
                    "key": "field_5f7f35c3d5f6e",
                    "label": "Label",
                    "name": "label",
                    "type": "text",
                    "instructions": "(e.g. Results, Link)",
                    "required": 0,
                    "conditional_logic": 0,
                    "wrapper": {
                        "width": "",
                        "class": "",
                        "id": ""
                    },
                    "default_value": "",
                    "placeholder": "",
                    "prepend": "",
                    "append": "",
                    "maxlength": ""
                },
                {
                    "key": "field_5f7f35c3d5f6f",
                    "label": "Slug",
                    "name": "slug",
                    "type": "text",
                    "instructions": "Lowercase, dashes (e.g. results, event-url)",
                    "required": 0,
                    "conditional_logic": 0,
                    "wrapper": {
                        "width": "",
                        "class": "",
                        "id": ""
                    },
                    "default_value": "",
                    "placeholder": "",
                    "prepend": "",
                    "append": "",
                    "maxlength": ""
                }
            ]
        },
        {
            "key": "field_5e138ec290c1e",
            "label": "Weeks",
            "name": "weeks",
            "type": "repeater",
            "instructions": "",
            "required": 0,
            "conditional_logic": 0,
            "wrapper": {
                "width": "",
                "class": "",
                "id": ""
            },
            "collapsed": "",
            "min": 0,
            "max": 0,
            "layout": "table",
            "button_label": "+ Add Week",
            "sub_fields": [
                {
                    "key": "field_5e138eca90c1f",
                    "label": "Number",
                    "name": "number",
                    "type": "text",
                    "instructions": "",
                    "required": 0,
                    "conditional_logic": 0,
                    "wrapper": {
                        "width": "",
                        "class": "",
                        "id": ""
                    },
                    "default_value": "",
                    "placeholder": "",
                    "prepend": "",
                    "append": "",
                    "maxlength": ""
                },
                {
                    "key": "field_5e138ef390c22",
                    "label": "Start Date",
                    "name": "start_date",
                    "type": "date_picker",
                    "instructions": "",
                    "required": 0,
                    "conditional_logic": 0,
                    "wrapper": {
                        "width": "",
                        "class": "",
                        "id": ""
                    },
                    "display_format": "Y-m-d",
                    "return_format": "Ymd",
                    "first_day": 1
                },
                {
                    "key": "field_5e138edb90c21",
                    "label": "End Date",
                    "name": "end_date",
                    "type": "date_picker",
                    "instructions": "",
                    "required": 0,
                    "conditional_logic": 0,
                    "wrapper": {
                        "width": "",
                        "class": "",
                        "id": ""
                    },
                    "display_format": "Y-m-d",
                    "return_format": "Ymd",
                    "first_day": 1
                },
                {
                    "key": "field_5e13912edeb8c",
                    "label": "Display Dates",
                    "name": "display_dates",
                    "type": "text",
                    "instructions": "",
                    "required": 0,
                    "conditional_logic": 0,
                    "wrapper": {
                        "width": "",
                        "class": "",
                        "id": ""
                    },
                    "default_value": "",
                    "placeholder": "",
                    "prepend": "",
                    "append": "",
                    "maxlength": ""
                }
            ]
        },
        {
            "key": "field_5f91c710f53d2",
            "label": "Link Label",
            "name": "link_label",
            "type": "text",
            "instructions": "Optional override of \"Link\"",
            "required": 0,
            "conditional_logic": 0,
            "wrapper": {
                "width": "",
                "class": "",
                "id": ""
            },
            "default_value": "",
            "placeholder": "",
            "prepend": "",
            "append": "",
            "maxlength": ""
        }
    ],
    "location": [
        [
            {
                "param": "block",
                "operator": "==",
                "value": "acf\/google-sheet-schedule"
            }
        ]
    ],
    "menu_order": 0,
    "position": "normal",
    "style": "default",
    "label_placement": "top",
    "instruction_placement": "label",
    "hide_on_screen": "",
    "active": true,
    "description": "",
    "modified": 1603389216
}